﻿00204759400001  2020080821:24:589284961270116000000006852.95+1274961270116          RECAUDACIÓN Y COBRANZAS       0000000000001928496127011620200808                                              SERV REC MED VIRTUAL          
00204759400001  20xxxx20080821:24:589284961270116000000000002.50-1274961270116          RECAUDACIÓN Y COBRANZAS       0000000000001928496127011620200808                                              COM SERV REC MED VIRTUAL      
00204759400001  2020080821:24:589284961270116000000000000.30-1274961270116          RECAUDACIÓN Y COBRANZAS       0000000000001928496127011620200808                                              IMPUESTO A LOS CREDITOS       
00204759400001  2020080810:05:357844651050527000000000098.80+1054651050527          *BANCA INTERNET - APLICATIVO  0000000000001784465105052720200808                                              TRANSFERENCIA ENTRE CUENTAS   
00204759400001  2020080809:45:365154960360457000000154324.00+03623765088   3765088  CAJA                          0000000000001515496036045720200808                                              DEPOSITO EN EFECTIVO          
00204759400001  2020080809:45:365154960360457000000000007.70-03623765088   3765088  CAJA                          0000000000001515496036045720200808                                              IMPUESTO A LOS CREDITOS       
00204759400001  2020080809:45:365154960360458000000164246.10+03623071388   3071388  CAJA                          0000000000001515496036045820200808                                              DEPOSITO EN EFECTIVO          
00204759400001  2020080809:45:365154960360458000000000008.20-03623071388   3071388  CAJA                          0000000000001515496036045820200808                                              IMPUESTO A LOS CREDITOS       
00204759400001  2020080809:45:365154960360459000000010000.00+03624432492   4432492  CAJA                          0000000000001515496036045920200808                                              DEPOSITO EN EFECTIVO          
00204759400001  2020080809:45:365154960360459000000000000.50-03624432492   4432492  CAJA                          0000000000001515496036045920200808                                              IMPUESTO A LOS CREDITOS       
00204759400001  2020080809:45:365154960360460000000164363.80+03624432493   4432493  CAJA                          0000000000001515496036046020200808                                              DEPOSITO EN EFECTIVO          
00204759400001  2020080809:45:365154960360460000000000008.20-03624432493   4432493  CAJA                          0000000000001515496036046020200808                                              IMPUESTO A LOS CREDITOS       
00204759400001  2020080809:45:365154960360461000000246946.90+03624743432   4743432  CAJA                          0000000000001515496036046120200808                                              DEPOSITO EN EFECTIVO          
00204759400001  2020080809:45:365154960360461000000000012.30-03624743432   4743432  CAJA                          0000000000001515496036046120200808                                              IMPUESTO A LOS CREDITOS       
00204759400001  2020080809:45:365154960360462000000019000.00+03625082181   5082181  CAJA                          0000000000001515496036046220200808                                              DEPOSITO EN EFECTIVO          
00204759400001  2020080809:45:365154960360462000000000000.95-03625082181   5082181  CAJA                          0000000000001515496036046220200808                                              IMPUESTO A LOS CREDITOS       
00204759400001  2020080809:45:365154960360463000000177594.20+03625082182   5082182  CAJA                          0000000000001515496036046320200808                                              DEPOSITO EN EFECTIVO          
00204759400001  2020080809:45:365154960360463000000000008.85-03625082182   5082182  CAJA                          0000000000001515496036046320200808                                              IMPUESTO A LOS CREDITOS       
00204759400001  2020080809:45:365154960360464000000227767.40+03624558801   4558801  CAJA                          0000000000001515496036046420200808                                              DEPOSITO EN EFECTIVO          
00204759400001  2020080809:45:365154960360464000000000011.35-03624558801   4558801  CAJA                          0000000000001515496036046420200808                                              IMPUESTO A LOS CREDITOS       
00204759400001  2020080809:45:365154960360465000000007478.50+03624122953   4122953  CAJA                          0000000000001515496036046520200808                                              DEPOSITO EN EFECTIVO          
00204759400001  2020080809:45:365154960360465000000000000.35-03624122953   4122953  CAJA                          0000000000001515496036046520200808                                              IMPUESTO A LOS CREDITOS       
00204759400001  2020080809:45:365154960360466000000242572.00+03624122954   4122954  CAJA                          0000000000001515496036046620200808                                              DEPOSITO EN EFECTIVO          
00204759400001  2020080809:45:365154960360466000000000012.10-03624122954   4122954  CAJA                          0000000000001515496036046620200808                                              IMPUESTO A LOS CREDITOS       
00204759400001  2020080809:45:365154960360467000000020000.00+03624321025   4321025  CAJA                          0000000000001515496036046720200808                                              DEPOSITO EN EFECTIVO          
00204759400001  2020080809:45:365154960360467000000000001.00-03624321025   4321025  CAJA                          0000000000001515496036046720200808                                              IMPUESTO A LOS CREDITOS       
00204759400001  2020080809:45:365154960360468000000139626.00+03624406207   4406207  CAJA                          0000000000001515496036046820200808                                              DEPOSITO EN EFECTIVO          
00204759400001  2020080809:45:365154960360468000000000006.95-03624406207   4406207  CAJA                          0000000000001515496036046820200808                                              IMPUESTO A LOS CREDITOS       
00204759400001  2020080809:45:365154960360469000000133652.20+03624501767   4501767  CAJA                          0000000000001515496036046920200808                                              DEPOSITO EN EFECTIVO          
00204759400001  2020080809:45:365154960360469000000000006.65-03624501767   4501767  CAJA                          0000000000001515496036046920200808                                              IMPUESTO A LOS CREDITOS       
00204759400001  2020080809:45:365154960360470000000119097.10+03624849330   4849330  CAJA                          0000000000001515496036047020200808                                              DEPOSITO EN EFECTIVO          
00204759400001  2020080809:45:365154960360470000000000005.95-03624849330   4849330  CAJA                          0000000000001515496036047020200808                                              IMPUESTO A LOS CREDITOS       
00204759400001  2020080809:45:365154960360471000000108661.70+03624687157   4687157  CAJA                          0000000000001515496036047120200808                                              DEPOSITO EN EFECTIVO          
00204759400001  2020080809:45:365154960360471000000000005.40-03624687157   4687157  CAJA                          0000000000001515496036047120200808                                              IMPUESTO A LOS CREDITOS       
00204759400001  2020080809:45:365154960360472000000020000.00+03624406416   4406416  CAJA                          0000000000001515496036047220200808                                              DEPOSITO EN EFECTIVO          
00204759400001  2020080809:45:365154960360472000000000001.00-03624406416   4406416  CAJA                          0000000000001515496036047220200808                                              IMPUESTO A LOS CREDITOS       
00204759400001  2020080809:45:365154960360473000000214713.00+03624406415   4406415  CAJA                          0000000000001515496036047320200808                                              DEPOSITO EN EFECTIVO          
00204759400001  2020080809:45:365154960360473000000000010.70-03624406415   4406415  CAJA                          0000000000001515496036047320200808                                              IMPUESTO A LOS CREDITOS       
00204759400001  2020080809:45:365154960360474000000196269.80+03624501884   4501884  CAJA                          0000000000001515496036047420200808                                              DEPOSITO EN EFECTIVO          
00204759400001  2020080809:45:365154960360474000000000009.80-03624501884   4501884  CAJA                          0000000000001515496036047420200808                                              IMPUESTO A LOS CREDITOS       
00204759400001  2020080809:45:365154960360475000000000415.60+03625236244   5236244  CAJA                          0000000000001515496036047520200808                                              DEPOSITO EN EFECTIVO          
00204759400001  2020080809:45:365154960360476000000001227.60+03625218302   5218302  CAJA                          0000000000001515496036047620200808                                              DEPOSITO EN EFECTIVO          
00204759400001  2020080809:45:365154960360476000000000000.05-03625218302   5218302  CAJA                          0000000000001515496036047620200808                                              IMPUESTO A LOS CREDITOS       
00204759400001  2020080809:45:365154960360477000000277360.00+03625218301   5218301  CAJA                          0000000000001515496036047720200808                                              DEPOSITO EN EFECTIVO          
00204759400001  2020080809:45:365154960360477000000000013.85-03625218301   5218301  CAJA                          0000000000001515496036047720200808                                              IMPUESTO A LOS CREDITOS       
00204759400001  2020080809:45:365154960360478000000001143.40+03625218276   5218276  CAJA                          0000000000001515496036047820200808                                              DEPOSITO EN EFECTIVO          
00204759400001  2020080809:45:365154960360478000000000000.05-03625218276   5218276  CAJA                          0000000000001515496036047820200808                                              IMPUESTO A LOS CREDITOS       
00204759400001  2020080809:45:365154960360479000000374390.00+03625218277   5218277  CAJA                          0000000000001515496036047920200808                                              DEPOSITO EN EFECTIVO          
00204759400001  2020080809:45:365154960360479000000000018.70-03625218277   5218277  CAJA                          0000000000001515496036047920200808                                              IMPUESTO A LOS CREDITOS       
00204759400001  2020080809:45:365154960360480000000106870.60+03624558742   4558742  CAJA                          0000000000001515496036048020200808                                              DEPOSITO EN EFECTIVO          
00204759400001  2020080809:45:365154960360480000000000005.30-03624558742   4558742  CAJA                          0000000000001515496036048020200808                                              IMPUESTO A LOS CREDITOS       
00204759400001  2020080809:45:365154960360481000000335662.70+03624432020   4432020  CAJA                          0000000000001515496036048120200808                                              DEPOSITO EN EFECTIVO          
00204759400001  2020080809:45:365154960360481000000000016.75-03624432020   4432020  CAJA                          0000000000001515496036048120200808                                              IMPUESTO A LOS CREDITOS       
00204759400001  2020080809:45:365154960360482000000000725.40+03625204089   5204089  CAJA                          0000000000001515496036048220200808                                              DEPOSITO EN EFECTIVO          
00204759400001  2020080809:45:365154960360483000000305400.00+03625204088   5204088  CAJA                          0000000000001515496036048320200808                                              DEPOSITO EN EFECTIVO          
00204759400001  2020080809:45:365154960360483000000000015.25-03625204088   5204088  CAJA                          0000000000001515496036048320200808                                              IMPUESTO A LOS CREDITOS       
00204759400001  2020080809:45:355154960360450000000143595.20+03625068468   5068468  CAJA                          0000000000001515496036045020200808                                              DEPOSITO EN EFECTIVO          
00204759400001  2020080809:45:355154960360450000000000007.15-03625068468   5068468  CAJA                          0000000000001515496036045020200808                                              IMPUESTO A LOS CREDITOS       
00204759400001  2020080809:45:355154960360451000000000678.60+03625231424   5231424  CAJA                          0000000000001515496036045120200808                                              DEPOSITO EN EFECTIVO          
00204759400001  2020080809:45:355154960360452000000000193.10+03625201537   5201537  CAJA                          0000000000001515496036045220200808                                              DEPOSITO EN EFECTIVO          
00204759400001  2020080809:45:355154960360453000000000265.50+03625201797   5201797  CAJA                          0000000000001515496036045320200808                                              DEPOSITO EN EFECTIVO          
00204759400001  2020080809:45:355154960360454000000004500.00+03624432274   4432274  CAJA                          0000000000001515496036045420200808                                              DEPOSITO EN EFECTIVO          
00204759400001  2020080809:45:355154960360454000000000000.20-03624432274   4432274  CAJA                          0000000000001515496036045420200808                                              IMPUESTO A LOS CREDITOS       
00204759400001  2020080809:45:355154960360455000000101728.20+03624743224   4743224  CAJA                          0000000000001515496036045520200808                                              DEPOSITO EN EFECTIVO          
00204759400001  2020080809:45:355154960360455000000000005.05-03624743224   4743224  CAJA                          0000000000001515496036045520200808                                              IMPUESTO A LOS CREDITOS       
00204759400001  2020080809:45:355154960360456000000161741.30+03623881915   3881915  CAJA                          0000000000001515496036045620200808                                              DEPOSITO EN EFECTIVO          
00204759400001  2020080809:45:355154960360456000000000008.05-03623881915   3881915  CAJA                          0000000000001515496036045620200808                                              IMPUESTO A LOS CREDITOS       
00204759400001  2020080809:41:237442445060255000000000104.70+5062030594827730594827 *OFFICE BANKING - APLICATIVO  0000000000001744244506025520200808                                              TBK-PAGO PROVEEDORES          
00204759400001  2020080721:25:019284960770014000000000012.50-0774960770014          RECAUDACIÓN Y COBRANZAS       0000000000001928496077001420200807                                              Comision sobre recibos        
00204759400001  2020080720:06:269004960600006000000019776.00-060@000411050000041105 TECNOLOGIA DE INFO&SOLUCIONES 0000000000001900496060000620200807                                              Pago ENEL(EDELNOR)         -DA
00204759400001  2020080720:06:269004960600006000000000000.95-060@000411050000041105 TECNOLOGIA DE INFO&SOLUCIONES 0000000000001900496060000620200807                                              IMPUESTO A LOS DEBITOS        
00204759400001  2020080718:53:517442445066920000000011795.09+5062043240552543240552 *OFFICE BANKING - APLICATIVO  0000000000001744244506692020200807                                              TBK-PAGO PROVEEDORES          
00204759400001  2020080718:53:517442445066920000000000000.55-5062043240552543240552 *OFFICE BANKING - APLICATIVO  0000000000001744244506692020200807                                              IMPUESTO A LOS CREDITOS       
00204759400001  2020080718:26:407442445023032000000127948.93-502009980169  09980169 *OFFICE BANKING - APLICATIVO  0000000000001744244502303220200807                                              TBK-PAGO PROVEEDORES          
00204759400001  2020080718:26:407442445023032000000000006.35-502009980169  09980169 *OFFICE BANKING - APLICATIVO  0000000000001744244502303220200807                                              IMPUESTO A LOS DEBITOS        
00204759400001  2020080716:52:220420500700089000000010987.00+0700500700089 04980829 AGENCIA EL AVELINO            0000000000001042050070008920200807                                              Pago 20498082913              
00204759400001  2020080716:52:220420500700089000000000000.50-0702049808291304980829 AGENCIA EL AVELINO            0000000000001042050070008920200807                                              IMPUESTO A LOS CREDITOS       
00204759400001  2020080716:44:257442445065663000000004615.79+5062010012805610012805 *OFFICE BANKING - APLICATIVO  0000000000001744244506566320200807                                              TBK-PAGO PROVEEDORES          
00204759400001  2020080716:44:257442445065663000000000000.20-5062010012805610012805 *OFFICE BANKING - APLICATIVO  0000000000001744244506566320200807                                              IMPUESTO A LOS CREDITOS       
00204759400001  2020080716:28:597442445065488000000005982.63+5062060274256460274256 *OFFICE BANKING - APLICATIVO  0000000000001744244506548820200807                                              TBK-PAGO PROVEEDORES          
00204759400001  2020080716:28:597442445065488000000000000.25-5062060274256460274256 *OFFICE BANKING - APLICATIVO  0000000000001744244506548820200807                                              IMPUESTO A LOS CREDITOS       
00204759400001  2020080716:19:557442445022173000000001774.71-502009980165  09980165 *OFFICE BANKING - APLICATIVO  0000000000001744244502217320200807                                              TBK-PAGOS VARIOS              
00204759400001  2020080716:19:557442445022173000000000000.05-502009980165  09980165 *OFFICE BANKING - APLICATIVO  0000000000001744244502217320200807                                              IMPUESTO A LOS DEBITOS        
00204759400001  2020080716:19:547442445022172000000483573.88-502009980164  09980164 *OFFICE BANKING - APLICATIVO  0000000000001744244502217220200807                                              TBK-PAGO PROVEEDORES          
00204759400001  2020080716:19:547442445022172000000000024.15-502009980164  09980164 *OFFICE BANKING - APLICATIVO  0000000000001744244502217220200807                                              IMPUESTO A LOS DEBITOS        
00204759400001  2020080716:17:209284963874812000000000625.00+3870092230000009223000 RECAUDACIÓN Y COBRANZAS       0000000000001928496387481220200807                                              TRANSFERENCIA VIA CCE         
00204759400001  2020080716:04:217442445065182000000000209.90+5062030594827730594827 *OFFICE BANKING - APLICATIVO  0000000000001744244506518220200807                                              TBK-PAGO PROVEEDORES          
00204759400001  2020080716:04:207442445065181000000000349.90+5062030594827730594827 *OFFICE BANKING - APLICATIVO  0000000000001744244506518120200807                                              TBK-PAGO PROVEEDORES          
00204759400001  2020080715:39:111950500700048000000000877.70+0700500700048 06037070 AGENCIA EL QUINDE ICA         0000000000001195050070004820200807                                              Pago 20603707002              
00204759400001  2020080715:38:151950500700047000000000166.20+0700500700047 06037070 AGENCIA EL QUINDE ICA         0000000000001195050070004720200807                                              Pago 20603707002              
00204759400001  2020080715:36:017442445080776000000008367.92+50885370111   09419470 *OFFICE BANKING - APLICATIVO  0000000000001744244508077620200807                                              TBK-TRF. CTAS 3ROS            
00204759400001  2020080715:36:017442445080776000000000000.40-50885370111   09419470 *OFFICE BANKING - APLICATIVO  0000000000001744244508077620200807                                              IMPUESTO A LOS CREDITOS       
00204759400001  2020080715:35:597442445080775000000025168.40+50885370110   09419470 *OFFICE BANKING - APLICATIVO  0000000000001744244508077520200807                                              TBK-TRF. CTAS 3ROS            
00204759400001  2020080715:35:597442445080775000000000001.25-50885370110   09419470 *OFFICE BANKING - APLICATIVO  0000000000001744244508077520200807                                              IMPUESTO A LOS CREDITOS       
00204759400001  2020080715:07:041154966080256000000395000.00+608LQ003802203Q0038022 TRANSFERENCIAS LOCALES        0000000000001115496608025620200807                                              TRANSF.CTAS PROPIAS           
00204759400001  2020080714:20:563140500700109000000015000.00+0700500700109 04980829 AGENCIA PARQUE INDUSTRIAL     0000000000001314050070010920200807                                              Pago 20498082913              
00204759400001  2020080714:20:563140500700109000000000000.75-0702049808291304980829 AGENCIA PARQUE INDUSTRIAL     0000000000001314050070010920200807                                              IMPUESTO A LOS CREDITOS       
00204759400001  2020080713:31:567844651051761000000000450.00+1054651051761          *BANCA INTERNET - APLICATIVO  0000000000001784465105176120200807                                              TRANSFERENCIA ENTRE CUENTAS   
00204759400001  2020080713:31:417442445064068000000000769.50+5062055085846155085846 *OFFICE BANKING - APLICATIVO  0000000000001744244506406820200807                                              TBK-PAGO PROVEEDORES          
00204759400001  2020080713:15:207442445063865000000005483.60+5062029031479929031479 *OFFICE BANKING - APLICATIVO  0000000000001744244506386520200807                                              TBK-PAGO PROVEEDORES          
00204759400001  2020080713:15:207442445063865000000000000.25-5062029031479929031479 *OFFICE BANKING - APLICATIVO  0000000000001744244506386520200807                                              IMPUESTO A LOS CREDITOS       
00204759400001  2020080713:04:057442445250902000000000002.00-5250021941258502194125 *OFFICE BANKING - APLICATIVO  0000000000001744244525090220200807                                              TRF.CCE PAGO PROVEEDORES      
00204759400001  2020080713:04:057442445250903000000000002.00-5250021941258502194125 *OFFICE BANKING - APLICATIVO  0000000000001744244525090320200807                                              TRF.CCE PAGO PROVEEDORES      
00204759400001  2020080713:04:057442445250904000000000002.00-5250021941258502194125 *OFFICE BANKING - APLICATIVO  0000000000001744244525090420200807                                              TRF.CCE PAGO PROVEEDORES      
00204759400001  2020080713:04:047442445250897000000000002.50-5250187570047518757004 *OFFICE BANKING - APLICATIVO  0000000000001744244525089720200807                                              TRF.CCE PAGO PROVEEDORES      
00204759400001  2020080713:04:047442445250898000000000002.50-5250187570047518757004 *OFFICE BANKING - APLICATIVO  0000000000001744244525089820200807                                              TRF.CCE PAGO PROVEEDORES      
00204759400001  2020080713:04:047442445250899000000000003.58-5250187570047518757004 *OFFICE BANKING - APLICATIVO  0000000000001744244525089920200807                                              TRF.CCE PAGO PROVEEDORES      
00204759400001  2020080713:04:047442445250900000000000002.00-5250021941258502194125 *OFFICE BANKING - APLICATIVO  0000000000001744244525090020200807                                              TRF.CCE PAGO PROVEEDORES      
00204759400001  2020080713:04:047442445250901000000000002.00-5250021941258502194125 *OFFICE BANKING - APLICATIVO  0000000000001744244525090120200807                                              TRF.CCE PAGO PROVEEDORES      
00204759400001  2020080713:04:037442445021113000000015571.20-502009980145  09980145 *OFFICE BANKING - APLICATIVO  0000000000001744244502111320200807                                              TBK-PAGOS VARIOS              
00204759400001  2020080713:04:037442445021113000000000000.75-502009980145  09980145 *OFFICE BANKING - APLICATIVO  0000000000001744244502111320200807                                              IMPUESTO A LOS DEBITOS        
00204759400001  2020080713:04:037442445250895000000000002.50-5250187570047518757004 *OFFICE BANKING - APLICATIVO  0000000000001744244525089520200807                                              TRF.CCE PAGO PROVEEDORES      
00204759400001  2020080713:04:037442445250896000000000002.50-5250187570047518757004 *OFFICE BANKING - APLICATIVO  0000000000001744244525089620200807                                              TRF.CCE PAGO PROVEEDORES      
00204759400001  2020080712:52:192230520050004000000057357.60+0050520050004          AG P. DE LA REPUBLICA S.ISIDRO0000000000001223052005000420200807                                              ANULACION CHEQ. GER.          
00204759400001  2020080712:52:192230520050004000000000003.00-0050520050004          AG P. DE LA REPUBLICA S.ISIDRO0000000000001223052005000420200807                                              COMIS.ANULACION CHQ.GERENCIA  
00204759400001  2020080712:52:192230520050004000000000002.85-0050520050004          AG P. DE LA REPUBLICA S.ISIDRO0000000000001223052005000420200807                                              IMPUESTO A LOS CREDITOS       
00204759400001  2020080712:51:272230520050003000000223387.68+0050520050003          AG P. DE LA REPUBLICA S.ISIDRO0000000000001223052005000320200807                                              ANULACION CHEQ. GER.          
00204759400001  2020080712:51:272230520050003000000000003.00-0050520050003          AG P. DE LA REPUBLICA S.ISIDRO0000000000001223052005000320200807                                              COMIS.ANULACION CHQ.GERENCIA  
00204759400001  2020080712:51:272230520050003000000000011.15-0050520050003          AG P. DE LA REPUBLICA S.ISIDRO0000000000001223052005000320200807                                              IMPUESTO A LOS CREDITOS       
00204759400001  2020080711:52:099690473500003000000339006.50-3500473500003          SERVICIOS TRANSACCIONAL       0000000000001969047350000320200807                                              REMESA EFECTIVO-RETIRO        
00204759400001  2020080711:52:099690473500003000000000016.95-3500473500003          SERVICIOS TRANSACCIONAL       0000000000001969047350000320200807                                              IMPUESTO A LOS DEBITOS        
00204759400001  2020080710:53:257442445060431000000003087.60+5062010004314010004314 *OFFICE BANKING - APLICATIVO  0000000000001744244506043120200807                                              TBK-PAGO PROVEEDORES          
00204759400001  2020080710:53:257442445060431000000000000.15-5062010004314010004314 *OFFICE BANKING - APLICATIVO  0000000000001744244506043120200807                                              IMPUESTO A LOS CREDITOS       
00204759400001  2020080710:18:336350500700014000000030000.00+0700500700014 04825038 AGENCIA C.C.MALL PLZ TRUJILLO 0000000000001635050070001420200807                                              Pago 20482503862              
00204759400001  2020080710:18:336350500700014000000000001.50-0702048250386204825038 AGENCIA C.C.MALL PLZ TRUJILLO 0000000000001635050070001420200807                                              IMPUESTO A LOS CREDITOS       
